regression/tests/clock_gate/simple.vcd
$scope module gc $end
$var wire 1 J asrt_data $end
$var wire 8 U clock_divider $end
$var wire 1 I cover_data $end
$var wire 1 T data_in $end
$var wire 1 R data_in_16 $end
$var wire 1 O data_in_2 $end
$var wire 1 P data_in_4 $end
$var wire 1 Q data_in_8 $end
$var wire 1 V data_out $end
$var wire 1 K div16 $end
$var wire 1 N div2 $end
$var wire 1 M div4 $end
$var wire 1 L div8 $end
$var wire 1 S reset_in $end
$upscope $end
$scope module th $end
$var wire 8 F clock_divider $end
$var wire 1 G data_in $end
$var wire 1 E data_out $end
$scope module exec_file $end
$var wire 32 D chosen_bit $end
$var wire 32 C expected_value $end
$var wire 32 B pos $end
$upscope $end
$var wire 1 H reset_in $end
$enddefinitions $end
#0
0J
b00000000 U
0I
0T
0R
0O
0P
0Q
1V
0K
0N
0M
0L
1S
b00000000 F
0G
1E
b00000000000000000000000000000000 D
b00000000000000000000000000000000 C
b00000000000000000000000000000000 B
1H
#20
0S
0H
#22
1J
b00000001 U
0V
b00000001 F
0E
#24
b00000010 U
1N
b00000010 F
#26
b00000011 U
0N
1M
b00000011 F
#28
b00000100 U
1N
0M
1L
b00000100 F
#30
b00000101 U
1K
0N
0L
b00000101 F
#32
b00000110 U
0K
1N
b00000110 F
#34
b00000111 U
0N
1M
b00000111 F
#36
b00001000 U
1N
0M
b00001000 F
#38
b00001001 U
0N
b00001001 F
#40
b00001010 U
1N
b00001010 F
#42
b00001011 U
0N
1M
b00001011 F
#44
b00001100 U
1N
0M
1L
b00001100 F
#46
b00001101 U
0N
0L
b00001101 F
#48
b00001110 U
1N
b00001110 F
#50
b00001111 U
0N
1M
b00001111 F
#52
b00010000 U
1N
0M
b00010000 F
#54
b00010001 U
1V
0N
b00010001 F
1E
b11110000101000111100001110010000 C
#56
b00010010 U
1T
1N
b00010010 F
1G
#58
b00010011 U
1O
0N
1M
b00010011 F
#60
b00010100 U
1P
0V
1N
0M
1L
b00010100 F
0E
#62
b00010101 U
0T
1Q
1V
1K
0N
0L
b00010101 F
0G
1E
#64
b00010110 U
1T
0V
0K
1N
b00010110 F
1G
0E
#66
b00010111 U
0T
0N
1M
b00010111 F
0G
#68
b00011000 U
0P
1N
0M
b00011000 F
#70
b00011001 U
0O
1V
0N
b00011001 F
1E
#72
b00011010 U
1T
0V
1N
b00011010 F
1G
0E
#74
b00011011 U
0T
1O
0N
1M
b00011011 F
0G
#76
b00011100 U
1V
1N
0M
1L
b00011100 F
1E
#78
b00011101 U
1T
0O
0Q
0N
0L
b00011101 F
1G
#80
b00011110 U
1N
b00011110 F
#82
b00011111 U
1O
0N
1M
b00011111 F
#84
b00100000 U
1P
0V
1N
0M
b00100000 F
0E
#86
b00100001 U
0T
0N
b00100001 F
0G
#88
b00100010 U
1N
b00100010 F
#90
b00100011 U
0O
0N
1M
b00100011 F
#92
b00100100 U
0P
1V
1N
0M
1L
b00100100 F
1E
#94
b00100101 U
1T
0V
1K
0N
0L
b00100101 F
1G
0E
#96
b00100110 U
0T
1R
0K
1N
b00100110 F
0G
#98
b00100111 U
1V
0N
1M
b00100111 F
1E
#100
b00101000 U
1T
1N
0M
b00101000 F
1G
#102
b00101001 U
1O
0N
b00101001 F
#104
b00101010 U
0V
1N
b00101010 F
0E
#106
b00101011 U
0T
0N
1M
b00101011 F
0G
#108
b00101100 U
1N
0M
1L
b00101100 F
#110
b00101101 U
0O
0N
0L
b00101101 F
#112
b00101110 U
1V
1N
b00101110 F
1E
#114
b00101111 U
1T
0N
1M
b00101111 F
1G
#116
b00110000 U
1P
1N
0M
b00110000 F
#118
b00110001 U
1O
0N
b00110001 F
#120
b00110010 U
0V
1N
b00110010 F
0E
#122
b00110011 U
0T
0N
1M
b00110011 F
0G
#124
b00110100 U
0P
1N
0M
1L
b00110100 F
#126
b00110101 U
0O
1V
1K
0N
0L
b00110101 F
1E
#128
b00110110 U
1T
0R
0V
0K
1N
b00110110 F
1G
0E
#130
b00110111 U
0T
1O
1V
0N
1M
b00110111 F
0G
1E
#132
b00111000 U
1T
0V
1N
0M
b00111000 F
1G
0E
#134
b00111001 U
0T
0N
b00111001 F
0G
#136
b00111010 U
1N
b00111010 F
#138
b00111011 U
0O
0N
1M
b00111011 F
#140
b00111100 U
1V
1N
0M
1L
b00111100 F
1E
#142
b00111101 U
1T
0N
0L
b00111101 F
1G
#144
b00111110 U
1N
b00111110 F
#146
b00111111 U
1O
0N
1M
b00111111 F
#148
b01000000 U
1P
0V
1N
0M
b01000000 F
0E
#150
b01000001 U
0T
0N
b01000001 F
0G
b00000000000000000000000000000001 B
#152
b01000010 U
1N
b01000010 F
b00000000000000000000000000000010 B
#154
b01000011 U
0O
0N
1M
b01000011 F
b00000000000000000000000000000011 B
#156
b01000100 U
0P
1V
1N
0M
1L
b01000100 F
1E
b00000000000000000000000000000100 B
#158
b01000101 U
1T
0V
1K
0N
0L
b01000101 F
1G
0E
b00000000000000000000000000000001 D
b00000000000000000000000000000101 B
#160
b01000110 U
0T
1R
0K
1N
b01000110 F
0G
b00000000000000000000000000000000 D
b00000000000000000000000000000110 B
#162
b01000111 U
1V
0N
1M
b01000111 F
1E
b00000000000000000000000000000111 B
#164
b01001000 U
1T
1N
0M
b01001000 F
1G
b00000000000000000000000000000001 D
b00000000000000000000000000001000 B
#166
b01001001 U
1O
0N
b01001001 F
b00000000000000000000000000001001 B
#168
b01001010 U
0V
1N
b01001010 F
0E
b00000000000000000000000000001010 B
#170
b01001011 U
0T
0N
1M
b01001011 F
0G
b00000000000000000000000000000000 D
b00000000000000000000000000001011 B
#172
b01001100 U
1N
0M
1L
b01001100 F
b00000000000000000000000000001100 B
#174
b01001101 U
0O
0N
0L
b01001101 F
b00000000000000000000000000001101 B
#176
b01001110 U
1V
1N
b01001110 F
1E
b00000000000000000000000000001110 B
#178
b01001111 U
1T
0N
1M
b01001111 F
1G
b00000000000000000000000000000001 D
b00000000000000000000000000001111 B
#180
b01010000 U
1P
1N
0M
b01010000 F
b00000000000000000000000000010000 B
#182
b01010001 U
1O
0N
b01010001 F
b00000000000000000000000000010001 B
#184
b01010010 U
0V
1N
b01010010 F
0E
b00000000000000000000000000010010 B
#186
b01010011 U
0T
0N
1M
b01010011 F
0G
b00000000000000000000000000000000 D
b00000000000000000000000000010011 B
#188
b01010100 U
0P
1N
0M
1L
b01010100 F
b00000000000000000000000000010100 B
#190
b01010101 U
0O
1V
1K
0N
0L
b01010101 F
1E
b00000000000000000000000000010101 B
#192
b01010110 U
1T
0R
0V
0K
1N
b01010110 F
1G
0E
b00000000000000000000000000000001 D
b00000000000000000000000000010110 B
#194
b01010111 U
0T
1O
1V
0N
1M
b01010111 F
0G
1E
b00000000000000000000000000000000 D
b00000000000000000000000000010111 B
#196
b01011000 U
1T
0V
1N
0M
b01011000 F
1G
0E
b00000000000000000000000000000001 D
b00000000000000000000000000011000 B
#198
b01011001 U
0T
0N
b01011001 F
0G
b00000000000000000000000000000000 D
b00000000000000000000000000011001 B
#200
b01011010 U
1N
b01011010 F
b00000000000000000000000000011010 B
#202
b01011011 U
0O
0N
1M
b01011011 F
b00000000000000000000000000011011 B
#204
b01011100 U
1V
1N
0M
1L
b01011100 F
1E
b00000000000000000000000000011100 B
#206
b01011101 U
1T
0N
0L
b01011101 F
1G
b00000000000000000000000000000001 D
b00000000000000000000000000011101 B
#208
b01011110 U
1N
b01011110 F
b00000000000000000000000000011110 B
#210
b01011111 U
1O
0N
1M
b01011111 F
b00000000000000000000000000011111 B
#212
b01100000 U
1P
0V
1N
0M
b01100000 F
0E
b00000000000000000000000000100000 B
#214
b01100001 U
0T
0N
b01100001 F
0G
b00000000000000000000000000000000 D
b00000000000000000000000000100001 B
#216
b01100010 U
1N
b01100010 F
b00000000000000000000000000100010 B
#218
b01100011 U
0O
0N
1M
b01100011 F
b00000000000000000000000000100011 B
#220
b01100100 U
0P
1V
1N
0M
1L
b01100100 F
1E
b00000000000000000000000000100100 B
#222
b01100101 U
1T
0V
1K
0N
0L
b01100101 F
1G
0E
b00000000000000000000000000000001 D
b00000000000000000000000000100101 B
#224
b01100110 U
0T
1R
0K
1N
b01100110 F
0G
b00000000000000000000000000000000 D
b00000000000000000000000000100110 B
#226
b01100111 U
1V
0N
1M
b01100111 F
1E
b00000000000000000000000000100111 B
#228
b01101000 U
1T
1N
0M
b01101000 F
1G
b00000000000000000000000000000001 D
b00000000000000000000000000101000 B
#230
b01101001 U
1O
0N
b01101001 F
b00000000000000000000000000101001 B
#232
b01101010 U
0V
1N
b01101010 F
0E
b00000000000000000000000000101010 B
#234
b01101011 U
0T
0N
1M
b01101011 F
0G
b00000000000000000000000000000000 D
b00000000000000000000000000101011 B
#236
b01101100 U
1N
0M
1L
b01101100 F
b00000000000000000000000000101100 B
#238
b01101101 U
0O
0N
0L
b01101101 F
b00000000000000000000000000101101 B
#240
b01101110 U
1V
1N
b01101110 F
1E
b00000000000000000000000000101110 B
#242
b01101111 U
1T
0N
1M
b01101111 F
1G
b00000000000000000000000000000001 D
b00000000000000000000000000101111 B
#244
b01110000 U
1P
1N
0M
b01110000 F
b00000000000000000000000000110000 B
#246
b01110001 U
1O
0N
b01110001 F
b00000000000000000000000000110001 B
#248
b01110010 U
0V
1N
b01110010 F
0E
b00000000000000000000000000110010 B
#250
b01110011 U
0T
0N
1M
b01110011 F
0G
b00000000000000000000000000000000 D
b00000000000000000000000000110011 B
#252
b01110100 U
0P
1N
0M
1L
b01110100 F
b00000000000000000000000000110100 B
#254
b01110101 U
0O
1V
1K
0N
0L
b01110101 F
1E
b00000000000000000000000000110101 B
#256
b01110110 U
1T
0R
0V
0K
1N
b01110110 F
1G
0E
b00000000000000000000000000000001 D
b00000000000000000000000000110110 B
#258
b01110111 U
0T
1O
1V
0N
1M
b01110111 F
0G
1E
b00000000000000000000000000000000 D
b00000000000000000000000000110111 B
#260
b01111000 U
1T
0V
1N
0M
b01111000 F
1G
0E
b00000000000000000000000000000001 D
b00000000000000000000000000111000 B
#262
b01111001 U
0T
0N
b01111001 F
0G
b00000000000000000000000000000000 D
b00000000000000000000000000111001 B
#264
b01111010 U
1N
b01111010 F
b00000000000000000000000000111010 B
#266
b01111011 U
0O
0N
1M
b01111011 F
b00000000000000000000000000111011 B
#268
b01111100 U
1V
1N
0M
1L
b01111100 F
1E
b00000000000000000000000000111100 B
#270
b01111101 U
1T
0N
0L
b01111101 F
1G
b00000000000000000000000000000001 D
b00000000000000000000000000111101 B
#272
b01111110 U
1N
b01111110 F
b00000000000000000000000000111110 B
#274
b01111111 U
1O
0N
1M
b01111111 F
b00000000000000000000000000111111 B
#276
b10000000 U
1P
0V
1N
0M
b10000000 F
0E
b00000000000000000000000001000000 B
#278
b10000001 U
0N
b10000001 F
#280
b10000010 U
1N
b10000010 F
#282
b10000011 U
0N
1M
b10000011 F
#284
b10000100 U
1N
0M
1L
b10000100 F
#286
b10000101 U
1Q
1K
0N
0L
b10000101 F
#288
b10000110 U
1R
1V
0K
1N
b10000110 F
1E
#290
b10000111 U
0V
0N
1M
b10000111 F
0E
#292
b10001000 U
1N
0M
b10001000 F
#294
b10001001 U
0N
b10001001 F
#296
b10001010 U
1N
b10001010 F
#298
b10001011 U
0N
1M
b10001011 F
