regression/tests/clock_gate/simple.vcd
$scope module gc $end
$var wire 1 I asrt_data $end
$var wire 8 T clock_divider $end
$var wire 1 S data_in $end
$var wire 1 Q data_in_16 $end
$var wire 1 N data_in_2 $end
$var wire 1 O data_in_4 $end
$var wire 1 P data_in_8 $end
$var wire 1 U data_out $end
$var wire 1 J div16 $end
$var wire 1 M div2 $end
$var wire 1 L div4 $end
$var wire 1 K div8 $end
$var wire 1 R reset_in $end
$upscope $end
$scope module th $end
$var wire 8 F clock_divider $end
$var wire 1 G data_in $end
$var wire 1 E data_out $end
$scope module exec_file $end
$var wire 32 D chosen_bit $end
$var wire 32 C expected_value $end
$var wire 32 B pos $end
$upscope $end
$var wire 1 H reset_in $end
$enddefinitions $end
#0
0I
b00000000 T
0S
0Q
0N
0O
0P
1U
0J
0M
0L
0K
1R
b00000000 F
0G
1E
b00000000000000000000000000000000 D
b00000000000000000000000000000000 C
b00000000000000000000000000000000 B
1H
#20
0R
0H
#22
1I
b00000001 T
0U
b00000001 F
0E
#24
b00000010 T
1M
b00000010 F
#26
b00000011 T
0M
1L
b00000011 F
#28
b00000100 T
1M
0L
1K
b00000100 F
#30
b00000101 T
1J
0M
0K
b00000101 F
#32
b00000110 T
0J
1M
b00000110 F
#34
b00000111 T
0M
1L
b00000111 F
#36
b00001000 T
1M
0L
b00001000 F
#38
b00001001 T
0M
b00001001 F
#40
b00001010 T
1M
b00001010 F
#42
b00001011 T
0M
1L
b00001011 F
#44
b00001100 T
1M
0L
1K
b00001100 F
#46
b00001101 T
0M
0K
b00001101 F
#48
b00001110 T
1M
b00001110 F
#50
b00001111 T
0M
1L
b00001111 F
#52
b00010000 T
1M
0L
b00010000 F
#54
b00010001 T
1U
0M
b00010001 F
1E
b11110000101000111100001110010000 C
#56
b00010010 T
1S
1M
b00010010 F
1G
#58
b00010011 T
0M
1L
b00010011 F
#60
b00010100 T
1M
0L
1K
b00010100 F
#62
b00010101 T
1J
0M
0K
b00010101 F
#64
b00010110 T
0J
1M
b00010110 F
#66
b00010111 T
0M
1L
b00010111 F
#68
b00011000 T
1M
0L
b00011000 F
#70
b00011001 T
0M
b00011001 F
#72
b00011010 T
1M
b00011010 F
#74
b00011011 T
0M
1L
b00011011 F
#76
b00011100 T
1M
0L
1K
b00011100 F
#78
b00011101 T
0M
0K
b00011101 F
#80
b00011110 T
1M
b00011110 F
#82
b00011111 T
0M
1L
b00011111 F
#84
b00100000 T
1M
0L
b00100000 F
#86
b00100001 T
0U
0M
b00100001 F
0E
#88
b00100010 T
0S
1M
b00100010 F
0G
#90
b00100011 T
0M
1L
b00100011 F
#92
b00100100 T
1M
0L
1K
b00100100 F
#94
b00100101 T
1J
0M
0K
b00100101 F
#96
b00100110 T
0J
1M
b00100110 F
#98
b00100111 T
0M
1L
b00100111 F
#100
b00101000 T
1M
0L
b00101000 F
#102
b00101001 T
0M
b00101001 F
#104
b00101010 T
1M
b00101010 F
#106
b00101011 T
0M
1L
b00101011 F
#108
b00101100 T
1M
0L
1K
b00101100 F
#110
b00101101 T
0M
0K
b00101101 F
#112
b00101110 T
1M
b00101110 F
#114
b00101111 T
0M
1L
b00101111 F
#116
b00110000 T
1M
0L
b00110000 F
#118
b00110001 T
1U
0M
b00110001 F
1E
#120
b00110010 T
1S
1M
b00110010 F
1G
#122
b00110011 T
0M
1L
b00110011 F
#124
b00110100 T
1M
0L
1K
b00110100 F
#126
b00110101 T
1J
0M
0K
b00110101 F
#128
b00110110 T
0J
1M
b00110110 F
#130
b00110111 T
0M
1L
b00110111 F
#132
b00111000 T
1M
0L
b00111000 F
#134
b00111001 T
0M
b00111001 F
#136
b00111010 T
1M
b00111010 F
#138
b00111011 T
0M
1L
b00111011 F
#140
b00111100 T
1M
0L
1K
b00111100 F
#142
b00111101 T
0M
0K
b00111101 F
#144
b00111110 T
1M
b00111110 F
#146
b00111111 T
0M
1L
b00111111 F
#148
b01000000 T
1M
0L
b01000000 F
#150
b01000001 T
0U
0M
b01000001 F
0E
b00000000000000000000000000000001 B
#152
b01000010 T
0S
1M
b01000010 F
0G
b00000000000000000000000000000010 B
#154
b01000011 T
0M
1L
b01000011 F
b00000000000000000000000000000011 B
#156
b01000100 T
1M
0L
1K
b01000100 F
b00000000000000000000000000000100 B
#158
b01000101 T
1J
0M
0K
b01000101 F
b00000000000000000000000000000001 D
b00000000000000000000000000000101 B
#160
b01000110 T
0J
1M
b01000110 F
b00000000000000000000000000000000 D
b00000000000000000000000000000110 B
#162
b01000111 T
0M
1L
b01000111 F
b00000000000000000000000000000111 B
#164
b01001000 T
1M
0L
b01001000 F
b00000000000000000000000000000001 D
b00000000000000000000000000001000 B
#166
b01001001 T
0M
b01001001 F
b00000000000000000000000000001001 B
#168
b01001010 T
1M
b01001010 F
b00000000000000000000000000001010 B
#170
b01001011 T
0M
1L
b01001011 F
b00000000000000000000000000000000 D
b00000000000000000000000000001011 B
#172
b01001100 T
1M
0L
1K
b01001100 F
b00000000000000000000000000001100 B
#174
b01001101 T
0M
0K
b01001101 F
b00000000000000000000000000001101 B
#176
b01001110 T
1M
b01001110 F
b00000000000000000000000000001110 B
#178
b01001111 T
0M
1L
b01001111 F
b00000000000000000000000000000001 D
b00000000000000000000000000001111 B
#180
b01010000 T
1M
0L
b01010000 F
b00000000000000000000000000010000 B
#182
b01010001 T
1U
0M
b01010001 F
1E
b00000000000000000000000000010001 B
#184
b01010010 T
1S
1M
b01010010 F
1G
b00000000000000000000000000010010 B
#186
b01010011 T
0M
1L
b01010011 F
b00000000000000000000000000000000 D
b00000000000000000000000000010011 B
#188
b01010100 T
1M
0L
1K
b01010100 F
b00000000000000000000000000010100 B
#190
b01010101 T
1J
0M
0K
b01010101 F
b00000000000000000000000000010101 B
#192
b01010110 T
0J
1M
b01010110 F
b00000000000000000000000000000001 D
b00000000000000000000000000010110 B
#194
b01010111 T
0M
1L
b01010111 F
b00000000000000000000000000000000 D
b00000000000000000000000000010111 B
#196
b01011000 T
1M
0L
b01011000 F
b00000000000000000000000000000001 D
b00000000000000000000000000011000 B
#198
b01011001 T
0M
b01011001 F
b00000000000000000000000000000000 D
b00000000000000000000000000011001 B
#200
b01011010 T
1M
b01011010 F
b00000000000000000000000000011010 B
#202
b01011011 T
0M
1L
b01011011 F
b00000000000000000000000000011011 B
#204
b01011100 T
1M
0L
1K
b01011100 F
b00000000000000000000000000011100 B
#206
b01011101 T
0M
0K
b01011101 F
b00000000000000000000000000000001 D
b00000000000000000000000000011101 B
#208
b01011110 T
1M
b01011110 F
b00000000000000000000000000011110 B
#210
b01011111 T
0M
1L
b01011111 F
b00000000000000000000000000011111 B
#212
b01100000 T
1M
0L
b01100000 F
b00000000000000000000000000100000 B
#214
b01100001 T
0U
0M
b01100001 F
0E
b00000000000000000000000000000000 D
b00000000000000000000000000100001 B
#216
b01100010 T
0S
1M
b01100010 F
0G
b00000000000000000000000000100010 B
#218
b01100011 T
0M
1L
b01100011 F
b00000000000000000000000000100011 B
#220
b01100100 T
1M
0L
1K
b01100100 F
b00000000000000000000000000100100 B
#222
b01100101 T
1J
0M
0K
b01100101 F
b00000000000000000000000000000001 D
b00000000000000000000000000100101 B
#224
b01100110 T
0J
1M
b01100110 F
b00000000000000000000000000000000 D
b00000000000000000000000000100110 B
#226
b01100111 T
0M
1L
b01100111 F
b00000000000000000000000000100111 B
#228
b01101000 T
1M
0L
b01101000 F
b00000000000000000000000000000001 D
b00000000000000000000000000101000 B
#230
b01101001 T
0M
b01101001 F
b00000000000000000000000000101001 B
#232
b01101010 T
1M
b01101010 F
b00000000000000000000000000101010 B
#234
b01101011 T
0M
1L
b01101011 F
b00000000000000000000000000000000 D
b00000000000000000000000000101011 B
#236
b01101100 T
1M
0L
1K
b01101100 F
b00000000000000000000000000101100 B
#238
b01101101 T
0M
0K
b01101101 F
b00000000000000000000000000101101 B
#240
b01101110 T
1M
b01101110 F
b00000000000000000000000000101110 B
#242
b01101111 T
0M
1L
b01101111 F
b00000000000000000000000000000001 D
b00000000000000000000000000101111 B
#244
b01110000 T
1M
0L
b01110000 F
b00000000000000000000000000110000 B
#246
b01110001 T
1U
0M
b01110001 F
1E
b00000000000000000000000000110001 B
#248
b01110010 T
1S
1M
b01110010 F
1G
b00000000000000000000000000110010 B
#250
b01110011 T
0M
1L
b01110011 F
b00000000000000000000000000000000 D
b00000000000000000000000000110011 B
#252
b01110100 T
1M
0L
1K
b01110100 F
b00000000000000000000000000110100 B
#254
b01110101 T
1J
0M
0K
b01110101 F
b00000000000000000000000000110101 B
#256
b01110110 T
0J
1M
b01110110 F
b00000000000000000000000000000001 D
b00000000000000000000000000110110 B
#258
b01110111 T
0M
1L
b01110111 F
b00000000000000000000000000000000 D
b00000000000000000000000000110111 B
#260
b01111000 T
1M
0L
b01111000 F
b00000000000000000000000000000001 D
b00000000000000000000000000111000 B
#262
b01111001 T
0M
b01111001 F
b00000000000000000000000000000000 D
b00000000000000000000000000111001 B
#264
b01111010 T
1M
b01111010 F
b00000000000000000000000000111010 B
#266
b01111011 T
0M
1L
b01111011 F
b00000000000000000000000000111011 B
#268
b01111100 T
1M
0L
1K
b01111100 F
b00000000000000000000000000111100 B
#270
b01111101 T
0M
0K
b01111101 F
b00000000000000000000000000000001 D
b00000000000000000000000000111101 B
#272
b01111110 T
1M
b01111110 F
b00000000000000000000000000111110 B
#274
b01111111 T
0M
1L
b01111111 F
b00000000000000000000000000111111 B
#276
b10000000 T
1M
0L
b10000000 F
b00000000000000000000000001000000 B
#278
b10000001 T
0U
0M
b10000001 F
0E
#280
b10000010 T
1M
b10000010 F
#282
b10000011 T
0M
1L
b10000011 F
#284
b10000100 T
1M
0L
1K
b10000100 F
#286
b10000101 T
1J
0M
0K
b10000101 F
#288
b10000110 T
0J
1M
b10000110 F
#290
b10000111 T
0M
1L
b10000111 F
#292
b10001000 T
1M
0L
b10001000 F
#294
b10001001 T
0M
b10001001 F
#296
b10001010 T
1M
b10001010 F
#298
b10001011 T
0M
1L
b10001011 F
