regression/tests/clock_gate/simple.vcd
$scope module gc $end
$var wire 1 I asrt_data $end
$var wire 8 Bf clock_divider $end
$var wire 1 Be data_in $end
$var wire 1 Bc data_in_16 $end
$var wire 1 BZ data_in_2 $end
$var wire 1 Ba data_in_4 $end
$var wire 1 Bb data_in_8 $end
$var wire 1 Bg data_out $end
$var wire 1 BV div16 $end
$var wire 1 BY div2 $end
$var wire 1 BX div4 $end
$var wire 1 BW div8 $end
$var wire 8 J large_struct__byte__0 $end
$var wire 8 K large_struct__byte__1 $end
$var wire 8 T large_struct__byte__10 $end
$var wire 8 U large_struct__byte__11 $end
$var wire 8 V large_struct__byte__12 $end
$var wire 8 W large_struct__byte__13 $end
$var wire 8 X large_struct__byte__14 $end
$var wire 8 Y large_struct__byte__15 $end
$var wire 8 Z large_struct__byte__16 $end
$var wire 8 a large_struct__byte__17 $end
$var wire 8 b large_struct__byte__18 $end
$var wire 8 c large_struct__byte__19 $end
$var wire 8 L large_struct__byte__2 $end
$var wire 8 d large_struct__byte__20 $end
$var wire 8 e large_struct__byte__21 $end
$var wire 8 f large_struct__byte__22 $end
$var wire 8 g large_struct__byte__23 $end
$var wire 8 h large_struct__byte__24 $end
$var wire 8 i large_struct__byte__25 $end
$var wire 8 j large_struct__byte__26 $end
$var wire 8 k large_struct__byte__27 $end
$var wire 8 l large_struct__byte__28 $end
$var wire 8 m large_struct__byte__29 $end
$var wire 8 M large_struct__byte__3 $end
$var wire 8 n large_struct__byte__30 $end
$var wire 8 o large_struct__byte__31 $end
$var wire 8 p large_struct__byte__32 $end
$var wire 8 q large_struct__byte__33 $end
$var wire 8 r large_struct__byte__34 $end
$var wire 8 s large_struct__byte__35 $end
$var wire 8 t large_struct__byte__36 $end
$var wire 8 u large_struct__byte__37 $end
$var wire 8 v large_struct__byte__38 $end
$var wire 8 w large_struct__byte__39 $end
$var wire 8 N large_struct__byte__4 $end
$var wire 8 x large_struct__byte__40 $end
$var wire 8 y large_struct__byte__41 $end
$var wire 8 z large_struct__byte__42 $end
$var wire 8 BA large_struct__byte__43 $end
$var wire 8 BB large_struct__byte__44 $end
$var wire 8 BC large_struct__byte__45 $end
$var wire 8 BD large_struct__byte__46 $end
$var wire 8 BE large_struct__byte__47 $end
$var wire 8 BF large_struct__byte__48 $end
$var wire 8 BG large_struct__byte__49 $end
$var wire 8 O large_struct__byte__5 $end
$var wire 8 BH large_struct__byte__50 $end
$var wire 8 BI large_struct__byte__51 $end
$var wire 8 BJ large_struct__byte__52 $end
$var wire 8 BK large_struct__byte__53 $end
$var wire 8 BL large_struct__byte__54 $end
$var wire 8 BM large_struct__byte__55 $end
$var wire 8 BN large_struct__byte__56 $end
$var wire 8 BO large_struct__byte__57 $end
$var wire 8 BP large_struct__byte__58 $end
$var wire 8 BQ large_struct__byte__59 $end
$var wire 8 P large_struct__byte__6 $end
$var wire 8 BR large_struct__byte__60 $end
$var wire 8 BS large_struct__byte__61 $end
$var wire 8 BT large_struct__byte__62 $end
$var wire 8 BU large_struct__byte__63 $end
$var wire 8 Q large_struct__byte__7 $end
$var wire 8 R large_struct__byte__8 $end
$var wire 8 S large_struct__byte__9 $end
$var wire 1 Bd reset_in $end
$upscope $end
$scope module th $end
$var wire 8 F clock_divider $end
$var wire 1 G data_in $end
$var wire 1 E data_out $end
$scope module exec_file $end
$var wire 32 D chosen_bit $end
$var wire 32 C expected_value $end
$var wire 32 B pos $end
$upscope $end
$var wire 1 H reset_in $end
$enddefinitions $end
#0
0I
b00000000 Bf
0Be
0Bc
0BZ
0Ba
0Bb
1Bg
0BV
0BY
0BX
0BW
b00000000 J
b00000000 K
b00000000 T
b00000000 U
b00000000 V
b00000000 W
b00000000 X
b00000000 Y
b00000000 Z
b00000000 a
b00000000 b
b00000000 c
b00000000 L
b00000000 d
b00000000 e
b00000000 f
b00000000 g
b00000000 h
b00000000 i
b00000000 j
b00000000 k
b00000000 l
b00000000 m
b00000000 M
b00000000 n
b00000000 o
b00000000 p
b00000000 q
b00000000 r
b00000000 s
b00000000 t
b00000000 u
b00000000 v
b00000000 w
b00000000 N
b00000000 x
b00000000 y
b00000000 z
b00000000 BA
b00000000 BB
b00000000 BC
b00000000 BD
b00000000 BE
b00000000 BF
b00000000 BG
b00000000 O
b00000000 BH
b00000000 BI
b00000000 BJ
b00000000 BK
b00000000 BL
b00000000 BM
b00000000 BN
b00000000 BO
b00000000 BP
b00000000 BQ
b00000000 P
b00000000 BR
b00000000 BS
b00000000 BT
b00000000 BU
b00000000 Q
b00000000 R
b00000000 S
1Bd
b00000000 F
0G
1E
b00000000000000000000000000000000 D
b00000000000000000000000000000000 C
b00000000000000000000000000000000 B
1H
#20
0Bd
0H
#22
1I
b00000001 Bf
0Bg
b00000001 F
0E
#24
b00000010 Bf
1BY
b00000010 F
#26
b00000011 Bf
0BY
1BX
b00000011 F
#28
b00000100 Bf
1BY
0BX
1BW
b00000100 F
#30
b00000101 Bf
1BV
0BY
0BW
b00000101 F
#32
b00000110 Bf
0BV
1BY
b00000110 F
#34
b00000111 Bf
0BY
1BX
b00000111 F
#36
b00001000 Bf
1BY
0BX
b00001000 F
#38
b00001001 Bf
0BY
b00001001 F
#40
b00001010 Bf
1BY
b00001010 F
#42
b00001011 Bf
0BY
1BX
b00001011 F
#44
b00001100 Bf
1BY
0BX
1BW
b00001100 F
#46
b00001101 Bf
0BY
0BW
b00001101 F
#48
b00001110 Bf
1BY
b00001110 F
#50
b00001111 Bf
0BY
1BX
b00001111 F
#52
b00010000 Bf
1BY
0BX
b00010000 F
#54
b00010001 Bf
1Bg
0BY
b00010001 F
1E
b11110000101000111100001110010000 C
#56
b00010010 Bf
1Be
1BY
b00010010 F
1G
#58
b00010011 Bf
1BZ
0BY
1BX
b00010011 F
#60
b00010100 Bf
1Ba
0Bg
1BY
0BX
1BW
b00010100 F
0E
#62
b00010101 Bf
0Be
1Bb
1Bg
1BV
0BY
0BW
b00010101 F
0G
1E
#64
b00010110 Bf
1Be
0Bg
0BV
1BY
b00010110 F
1G
0E
#66
b00010111 Bf
0Be
0BY
1BX
b00010111 F
0G
#68
b00011000 Bf
0Ba
1BY
0BX
b00011000 F
#70
b00011001 Bf
0BZ
1Bg
0BY
b00011001 F
1E
#72
b00011010 Bf
1Be
0Bg
1BY
b00011010 F
1G
0E
#74
b00011011 Bf
0Be
1BZ
0BY
1BX
b00011011 F
0G
#76
b00011100 Bf
1Bg
1BY
0BX
1BW
b00011100 F
1E
#78
b00011101 Bf
1Be
0BZ
0Bb
0BY
0BW
b00011101 F
1G
#80
b00011110 Bf
1BY
b00011110 F
#82
b00011111 Bf
1BZ
0BY
1BX
b00011111 F
#84
b00100000 Bf
1Ba
0Bg
1BY
0BX
b00100000 F
0E
#86
b00100001 Bf
0Be
0BY
b00100001 F
0G
#88
b00100010 Bf
1BY
b00100010 F
#90
b00100011 Bf
0BZ
0BY
1BX
b00100011 F
#92
b00100100 Bf
0Ba
1Bg
1BY
0BX
1BW
b00100100 F
1E
#94
b00100101 Bf
1Be
0Bg
1BV
0BY
0BW
b00100101 F
1G
0E
#96
b00100110 Bf
0Be
1Bc
0BV
1BY
b00100110 F
0G
#98
b00100111 Bf
1Bg
0BY
1BX
b00100111 F
1E
#100
b00101000 Bf
1Be
1BY
0BX
b00101000 F
1G
#102
b00101001 Bf
1BZ
0BY
b00101001 F
#104
b00101010 Bf
0Bg
1BY
b00101010 F
0E
#106
b00101011 Bf
0Be
0BY
1BX
b00101011 F
0G
#108
b00101100 Bf
1BY
0BX
1BW
b00101100 F
#110
b00101101 Bf
0BZ
0BY
0BW
b00101101 F
#112
b00101110 Bf
1Bg
1BY
b00101110 F
1E
#114
b00101111 Bf
1Be
0BY
1BX
b00101111 F
1G
#116
b00110000 Bf
1Ba
1BY
0BX
b00110000 F
#118
b00110001 Bf
1BZ
0BY
b00110001 F
#120
b00110010 Bf
0Bg
1BY
b00110010 F
0E
#122
b00110011 Bf
0Be
0BY
1BX
b00110011 F
0G
#124
b00110100 Bf
0Ba
1BY
0BX
1BW
b00110100 F
#126
b00110101 Bf
0BZ
1Bg
1BV
0BY
0BW
b00110101 F
1E
#128
b00110110 Bf
1Be
0Bc
0Bg
0BV
1BY
b00110110 F
1G
0E
#130
b00110111 Bf
0Be
1BZ
1Bg
0BY
1BX
b00110111 F
0G
1E
#132
b00111000 Bf
1Be
0Bg
1BY
0BX
b00111000 F
1G
0E
#134
b00111001 Bf
0Be
0BY
b00111001 F
0G
#136
b00111010 Bf
1BY
b00111010 F
#138
b00111011 Bf
0BZ
0BY
1BX
b00111011 F
#140
b00111100 Bf
1Bg
1BY
0BX
1BW
b00111100 F
1E
#142
b00111101 Bf
1Be
0BY
0BW
b00111101 F
1G
#144
b00111110 Bf
1BY
b00111110 F
#146
b00111111 Bf
1BZ
0BY
1BX
b00111111 F
#148
b01000000 Bf
1Ba
0Bg
1BY
0BX
b01000000 F
0E
#150
b01000001 Bf
0Be
0BY
b01000001 F
0G
b00000000000000000000000000000001 B
#152
b01000010 Bf
1BY
b01000010 F
b00000000000000000000000000000010 B
#154
b01000011 Bf
0BZ
0BY
1BX
b01000011 F
b00000000000000000000000000000011 B
#156
b01000100 Bf
0Ba
1Bg
1BY
0BX
1BW
b01000100 F
1E
b00000000000000000000000000000100 B
#158
b01000101 Bf
1Be
0Bg
1BV
0BY
0BW
b01000101 F
1G
0E
b00000000000000000000000000000001 D
b00000000000000000000000000000101 B
#160
b01000110 Bf
0Be
1Bc
0BV
1BY
b01000110 F
0G
b00000000000000000000000000000000 D
b00000000000000000000000000000110 B
#162
b01000111 Bf
1Bg
0BY
1BX
b01000111 F
1E
b00000000000000000000000000000111 B
#164
b01001000 Bf
1Be
1BY
0BX
b01001000 F
1G
b00000000000000000000000000000001 D
b00000000000000000000000000001000 B
#166
b01001001 Bf
1BZ
0BY
b01001001 F
b00000000000000000000000000001001 B
#168
b01001010 Bf
0Bg
1BY
b01001010 F
0E
b00000000000000000000000000001010 B
#170
b01001011 Bf
0Be
0BY
1BX
b01001011 F
0G
b00000000000000000000000000000000 D
b00000000000000000000000000001011 B
#172
b01001100 Bf
1BY
0BX
1BW
b01001100 F
b00000000000000000000000000001100 B
#174
b01001101 Bf
0BZ
0BY
0BW
b01001101 F
b00000000000000000000000000001101 B
#176
b01001110 Bf
1Bg
1BY
b01001110 F
1E
b00000000000000000000000000001110 B
#178
b01001111 Bf
1Be
0BY
1BX
b01001111 F
1G
b00000000000000000000000000000001 D
b00000000000000000000000000001111 B
#180
b01010000 Bf
1Ba
1BY
0BX
b01010000 F
b00000000000000000000000000010000 B
#182
b01010001 Bf
1BZ
0BY
b01010001 F
b00000000000000000000000000010001 B
#184
b01010010 Bf
0Bg
1BY
b01010010 F
0E
b00000000000000000000000000010010 B
#186
b01010011 Bf
0Be
0BY
1BX
b01010011 F
0G
b00000000000000000000000000000000 D
b00000000000000000000000000010011 B
#188
b01010100 Bf
0Ba
1BY
0BX
1BW
b01010100 F
b00000000000000000000000000010100 B
#190
b01010101 Bf
0BZ
1Bg
1BV
0BY
0BW
b01010101 F
1E
b00000000000000000000000000010101 B
#192
b01010110 Bf
1Be
0Bc
0Bg
0BV
1BY
b01010110 F
1G
0E
b00000000000000000000000000000001 D
b00000000000000000000000000010110 B
#194
b01010111 Bf
0Be
1BZ
1Bg
0BY
1BX
b01010111 F
0G
1E
b00000000000000000000000000000000 D
b00000000000000000000000000010111 B
#196
b01011000 Bf
1Be
0Bg
1BY
0BX
b01011000 F
1G
0E
b00000000000000000000000000000001 D
b00000000000000000000000000011000 B
#198
b01011001 Bf
0Be
0BY
b01011001 F
0G
b00000000000000000000000000000000 D
b00000000000000000000000000011001 B
#200
b01011010 Bf
1BY
b01011010 F
b00000000000000000000000000011010 B
#202
b01011011 Bf
0BZ
0BY
1BX
b01011011 F
b00000000000000000000000000011011 B
#204
b01011100 Bf
1Bg
1BY
0BX
1BW
b01011100 F
1E
b00000000000000000000000000011100 B
#206
b01011101 Bf
1Be
0BY
0BW
b01011101 F
1G
b00000000000000000000000000000001 D
b00000000000000000000000000011101 B
#208
b01011110 Bf
1BY
b01011110 F
b00000000000000000000000000011110 B
#210
b01011111 Bf
1BZ
0BY
1BX
b01011111 F
b00000000000000000000000000011111 B
#212
b01100000 Bf
1Ba
0Bg
1BY
0BX
b01100000 F
0E
b00000000000000000000000000100000 B
#214
b01100001 Bf
0Be
0BY
b01100001 F
0G
b00000000000000000000000000000000 D
b00000000000000000000000000100001 B
#216
b01100010 Bf
1BY
b01100010 F
b00000000000000000000000000100010 B
#218
b01100011 Bf
0BZ
0BY
1BX
b01100011 F
b00000000000000000000000000100011 B
#220
b01100100 Bf
0Ba
1Bg
1BY
0BX
1BW
b01100100 F
1E
b00000000000000000000000000100100 B
#222
b01100101 Bf
1Be
0Bg
1BV
0BY
0BW
b01100101 F
1G
0E
b00000000000000000000000000000001 D
b00000000000000000000000000100101 B
#224
b01100110 Bf
0Be
1Bc
0BV
1BY
b01100110 F
0G
b00000000000000000000000000000000 D
b00000000000000000000000000100110 B
#226
b01100111 Bf
1Bg
0BY
1BX
b01100111 F
1E
b00000000000000000000000000100111 B
#228
b01101000 Bf
1Be
1BY
0BX
b01101000 F
1G
b00000000000000000000000000000001 D
b00000000000000000000000000101000 B
#230
b01101001 Bf
1BZ
0BY
b01101001 F
b00000000000000000000000000101001 B
#232
b01101010 Bf
0Bg
1BY
b01101010 F
0E
b00000000000000000000000000101010 B
#234
b01101011 Bf
0Be
0BY
1BX
b01101011 F
0G
b00000000000000000000000000000000 D
b00000000000000000000000000101011 B
#236
b01101100 Bf
1BY
0BX
1BW
b01101100 F
b00000000000000000000000000101100 B
#238
b01101101 Bf
0BZ
0BY
0BW
b01101101 F
b00000000000000000000000000101101 B
#240
b01101110 Bf
1Bg
1BY
b01101110 F
1E
b00000000000000000000000000101110 B
#242
b01101111 Bf
1Be
0BY
1BX
b01101111 F
1G
b00000000000000000000000000000001 D
b00000000000000000000000000101111 B
#244
b01110000 Bf
1Ba
1BY
0BX
b01110000 F
b00000000000000000000000000110000 B
#246
b01110001 Bf
1BZ
0BY
b01110001 F
b00000000000000000000000000110001 B
#248
b01110010 Bf
0Bg
1BY
b01110010 F
0E
b00000000000000000000000000110010 B
#250
b01110011 Bf
0Be
0BY
1BX
b01110011 F
0G
b00000000000000000000000000000000 D
b00000000000000000000000000110011 B
#252
b01110100 Bf
0Ba
1BY
0BX
1BW
b01110100 F
b00000000000000000000000000110100 B
#254
b01110101 Bf
0BZ
1Bg
1BV
0BY
0BW
b01110101 F
1E
b00000000000000000000000000110101 B
#256
b01110110 Bf
1Be
0Bc
0Bg
0BV
1BY
b01110110 F
1G
0E
b00000000000000000000000000000001 D
b00000000000000000000000000110110 B
#258
b01110111 Bf
0Be
1BZ
1Bg
0BY
1BX
b01110111 F
0G
1E
b00000000000000000000000000000000 D
b00000000000000000000000000110111 B
#260
b01111000 Bf
1Be
0Bg
1BY
0BX
b01111000 F
1G
0E
b00000000000000000000000000000001 D
b00000000000000000000000000111000 B
#262
b01111001 Bf
0Be
0BY
b01111001 F
0G
b00000000000000000000000000000000 D
b00000000000000000000000000111001 B
#264
b01111010 Bf
1BY
b01111010 F
b00000000000000000000000000111010 B
#266
b01111011 Bf
0BZ
0BY
1BX
b01111011 F
b00000000000000000000000000111011 B
#268
b01111100 Bf
1Bg
1BY
0BX
1BW
b01111100 F
1E
b00000000000000000000000000111100 B
#270
b01111101 Bf
1Be
0BY
0BW
b01111101 F
1G
b00000000000000000000000000000001 D
b00000000000000000000000000111101 B
#272
b01111110 Bf
1BY
b01111110 F
b00000000000000000000000000111110 B
#274
b01111111 Bf
1BZ
0BY
1BX
b01111111 F
b00000000000000000000000000111111 B
#276
b10000000 Bf
1Ba
0Bg
1BY
0BX
b10000000 F
0E
b00000000000000000000000001000000 B
#278
b10000001 Bf
0BY
b10000001 F
#280
b10000010 Bf
1BY
b10000010 F
#282
b10000011 Bf
0BY
1BX
b10000011 F
#284
b10000100 Bf
1BY
0BX
1BW
b10000100 F
#286
b10000101 Bf
1Bb
1BV
0BY
0BW
b10000101 F
#288
b10000110 Bf
1Bc
1Bg
0BV
1BY
b10000110 F
1E
#290
b10000111 Bf
0Bg
0BY
1BX
b10000111 F
0E
#292
b10001000 Bf
1BY
0BX
b10001000 F
#294
b10001001 Bf
0BY
b10001001 F
#296
b10001010 Bf
1BY
b10001010 F
#298
b10001011 Bf
0BY
1BX
b10001011 F
